EESchema Schematic File Version 2
LIBS:tp5-rescue
LIBS:power
LIBS:device
LIBS:transistors
LIBS:conn
LIBS:linear
LIBS:regul
LIBS:74xx
LIBS:cmos4000
LIBS:adc-dac
LIBS:memory
LIBS:xilinx
LIBS:microcontrollers
LIBS:dsp
LIBS:microchip
LIBS:analog_switches
LIBS:motorola
LIBS:texas
LIBS:intel
LIBS:audio
LIBS:interface
LIBS:digital-audio
LIBS:philips
LIBS:display
LIBS:cypress
LIBS:siliconi
LIBS:opto
LIBS:atmel
LIBS:contrib
LIBS:valves
LIBS:lm2596
LIBS:LPC4337JBD144
LIBS:24lc64
LIBS:tp5-cache
EELAYER 26 0
EELAYER END
$Descr A4 11693 8268
encoding utf-8
Sheet 1 5
Title ""
Date ""
Rev ""
Comp ""
Comment1 ""
Comment2 ""
Comment3 ""
Comment4 ""
$EndDescr
$Sheet
S 3100 2750 1300 450 
U 576552B0
F0 "Fuente de Alimentación" 60
F1 "fuente.sch" 60
F2 "Vin" I L 3100 2900 60 
$EndSheet
$Sheet
S 5050 3450 1350 850 
U 5765531B
F0 "CPU" 60
F1 "cpu.sch" 60
F2 "DAC_OUT" O R 6400 3850 60 
F3 "ADC_IN" I L 5050 3850 60 
$EndSheet
$Sheet
S 3100 3600 1300 500 
U 57655326
F0 "Filtro Antialiasing" 60
F1 "antialias.sch" 60
F2 "IN" I L 3100 3850 60 
F3 "OUT" O R 4400 3850 60 
$EndSheet
$Sheet
S 6800 3600 1400 500 
U 57655334
F0 "Filtro de Reconstrucción" 60
F1 "reconstruc.sch" 60
F2 "IN" I L 6800 3850 60 
F3 "OUT" O R 8200 3850 60 
$EndSheet
$Comp
L BNC P1
U 1 1 57655358
P 8650 3850
F 0 "P1" H 8660 3970 50  0000 C CNN
F 1 "SMA" V 8760 3790 50  0000 C CNN
F 2 "footprints:901-143-6RFX" H 8650 3850 50  0001 C CNN
F 3 "" H 8650 3850 50  0000 C CNN
	1    8650 3850
	1    0    0    -1  
$EndComp
$Comp
L POT-RESCUE-tp5 RV1
U 1 1 576553B4
P 2700 3850
F 0 "RV1" H 2700 3770 50  0000 C CNN
F 1 "POT" H 2700 3850 50  0000 C CNN
F 2 "" H 2700 3850 50  0001 C CNN
F 3 "" H 2700 3850 50  0000 C CNN
	1    2700 3850
	0    1    1    0   
$EndComp
$Comp
L BARREL_JACK CON1
U 1 1 5765553F
P 2500 3000
F 0 "CON1" H 2350 3200 50  0000 C CNN
F 1 "Entrada Alimentación" H 2400 2850 50  0000 C CNN
F 2 "Connect:BARREL_JACK" H 2500 3000 50  0001 C CNN
F 3 "" H 2500 3000 50  0000 C CNN
	1    2500 3000
	1    0    0    -1  
$EndComp
Wire Wire Line
	3100 2900 2800 2900
$Comp
L GND #PWR01
U 1 1 57656C1E
P 2900 3250
F 0 "#PWR01" H 2900 3000 50  0001 C CNN
F 1 "GND" H 2900 3100 50  0000 C CNN
F 2 "" H 2900 3250 50  0000 C CNN
F 3 "" H 2900 3250 50  0000 C CNN
	1    2900 3250
	1    0    0    -1  
$EndComp
Wire Wire Line
	2800 3000 2900 3000
Wire Wire Line
	2900 3000 2900 3250
Wire Wire Line
	2900 3100 2800 3100
Connection ~ 2900 3100
$Comp
L +3.3VADC #PWR02
U 1 1 576569B8
P 2700 3700
F 0 "#PWR02" H 2850 3650 50  0001 C CNN
F 1 "+3.3VADC" H 2700 3800 50  0000 C CNN
F 2 "" H 2700 3700 50  0000 C CNN
F 3 "" H 2700 3700 50  0000 C CNN
	1    2700 3700
	1    0    0    -1  
$EndComp
$Comp
L GNDA #PWR03
U 1 1 576569E4
P 2700 4000
F 0 "#PWR03" H 2700 3750 50  0001 C CNN
F 1 "GNDA" H 2700 3850 50  0000 C CNN
F 2 "" H 2700 4000 50  0000 C CNN
F 3 "" H 2700 4000 50  0000 C CNN
	1    2700 4000
	1    0    0    -1  
$EndComp
Wire Wire Line
	3100 3850 2850 3850
Wire Wire Line
	4400 3850 5050 3850
Wire Wire Line
	6400 3850 6800 3850
$Comp
L GNDA #PWR04
U 1 1 576575C5
P 8650 4050
F 0 "#PWR04" H 8650 3800 50  0001 C CNN
F 1 "GNDA" H 8650 3900 50  0000 C CNN
F 2 "" H 8650 4050 50  0000 C CNN
F 3 "" H 8650 4050 50  0000 C CNN
	1    8650 4050
	1    0    0    -1  
$EndComp
Wire Wire Line
	8500 3850 8200 3850
$EndSCHEMATC
