(module 901-143-6RFX (layer F.Cu) (tedit 576E96D8)
  (fp_text reference REF** (at 0 5) (layer F.SilkS)
    (effects (font (size 1 1) (thickness 0.15)))
  )
  (fp_text value 901-143-6RFX (at 0 -5) (layer F.Fab)
    (effects (font (size 1 1) (thickness 0.15)))
  )
  (fp_line (start 7.4 3) (end 8 -3) (layer F.SilkS) (width 0.15))
  (fp_line (start 8 3) (end 7.4 3) (layer F.SilkS) (width 0.15))
  (fp_line (start 8.6 -3) (end 8 3) (layer F.SilkS) (width 0.15))
  (fp_line (start 9.2 -3) (end 8.6 -3) (layer F.SilkS) (width 0.15))
  (fp_line (start 8.6 3) (end 9.2 -3) (layer F.SilkS) (width 0.15))
  (fp_line (start 9.2 3) (end 8.6 3) (layer F.SilkS) (width 0.15))
  (fp_line (start 9.8 -3) (end 9.2 3) (layer F.SilkS) (width 0.15))
  (fp_line (start 10.4 -3) (end 9.8 -3) (layer F.SilkS) (width 0.15))
  (fp_line (start 9.8 3) (end 10.4 -3) (layer F.SilkS) (width 0.15))
  (fp_line (start 10.4 3) (end 9.8 3) (layer F.SilkS) (width 0.15))
  (fp_line (start 11 -3) (end 10.4 3) (layer F.SilkS) (width 0.15))
  (fp_line (start 11 3) (end 4 3) (layer F.SilkS) (width 0.15))
  (fp_line (start 11 -3) (end 11 3) (layer F.SilkS) (width 0.15))
  (fp_line (start 4 -3) (end 11 -3) (layer F.SilkS) (width 0.15))
  (fp_line (start 4 -4) (end -4 -4) (layer F.SilkS) (width 0.15))
  (fp_line (start 4 4) (end 4 -4) (layer F.SilkS) (width 0.15))
  (fp_line (start -4 4) (end 4 4) (layer F.SilkS) (width 0.15))
  (fp_line (start -4 -4) (end -4 4) (layer F.SilkS) (width 0.15))
  (pad 1 thru_hole circle (at 0 0) (size 2.5 2.5) (drill 1.5) (layers *.Cu *.Mask F.SilkS))
  (pad 2 thru_hole circle (at 2.54 -2.54) (size 2.5 2.5) (drill 1.7) (layers *.Cu *.Mask F.SilkS))
  (pad 2 thru_hole circle (at -2.54 -2.54) (size 2.5 2.5) (drill 1.7) (layers *.Cu *.Mask F.SilkS))
  (pad 2 thru_hole circle (at -2.54 2.54) (size 2.5 2.5) (drill 1.7) (layers *.Cu *.Mask F.SilkS))
  (pad 2 thru_hole circle (at 2.54 2.54) (size 2.5 2.5) (drill 1.7) (layers *.Cu *.Mask F.SilkS))
)
